animation{
  name = "bomb_bag",
  src_image = "items/equipment/bomb_bag.png",
  directions = {
    { x = 0, y = 0, frame_width = 16, frame_height = 16, origin_x = 8, origin_y = 13 },
    { x = 0, y = 16, frame_width = 16, frame_height = 16, origin_x = 8, origin_y = 13 },
    { x = 0, y = 32, frame_width = 16, frame_height = 16, origin_x = 8, origin_y = 13 },
  },
}
