animation{
  name = "stopped",
  src_image = "hero/stopped.tunic.png",
  directions = {
    { x = 0, y = 0, frame_width = 24, frame_height = 24, origin_x = 12, origin_y = 21 },
    { x = 24, y = 0, frame_width = 24, frame_height = 24, origin_x = 12, origin_y = 21 },
    { x = 72, y = 0, frame_width = 24, frame_height = 24, origin_x = 12, origin_y = 21 },
    { x = 96, y = 0, frame_width = 24, frame_height = 24, origin_x = 12, origin_y = 21 },
  },
}
animation{
  name = "boomerang1",
  src_image = "hero/boomerang.tunic.png",
  frame_delay = 100,
  directions = {
    { x = 0, y = 0, frame_width = 32, frame_height = 24, origin_x = 16, origin_y = 21, num_frames = 2 },
    { x = 0, y = 24, frame_width = 32, frame_height = 24, origin_x = 16, origin_y = 21, num_frames = 2 },
    { x = 0, y = 48, frame_width = 32, frame_height = 24, origin_x = 16, origin_y = 21, num_frames = 2 },
    { x = 0, y = 72, frame_width = 32, frame_height = 24, origin_x = 16, origin_y = 21, num_frames = 2 },
  },
}
animation{
  name = "boomerang2",
  src_image = "hero/boomerang.tunic.png",
  frame_delay = 100,
  directions = {
    { x = 64, y = 0, frame_width = 32, frame_height = 24, origin_x = 16, origin_y = 21, num_frames = 2 },
    { x = 64, y = 24, frame_width = 32, frame_height = 24, origin_x = 16, origin_y = 21, num_frames = 2 },
    { x = 64, y = 48, frame_width = 32, frame_height = 24, origin_x = 16, origin_y = 21, num_frames = 2 },
    { x = 64, y = 72, frame_width = 32, frame_height = 24, origin_x = 16, origin_y = 21, num_frames = 2 },
  },
}
animation{
  name = "bow",
  src_image = "hero/bow.tunic.png",
  frame_delay = 100,
  directions = {
    { x = 0, y = 0, frame_width = 32, frame_height = 24, origin_x = 16, origin_y = 21, num_frames = 3 },
    { x = 0, y = 24, frame_width = 32, frame_height = 24, origin_x = 16, origin_y = 21, num_frames = 3 },
    { x = 0, y = 48, frame_width = 32, frame_height = 24, origin_x = 16, origin_y = 21, num_frames = 3 },
    { x = 0, y = 72, frame_width = 32, frame_height = 24, origin_x = 16, origin_y = 20, num_frames = 3 },
  },
}
animation{
  name = "brandish",
  src_image = "hero/brandish.png",
  directions = {
    { x = 0, y = 0, frame_width = 16, frame_height = 24, origin_x = 8, origin_y = 21 },
    { x = 0, y = 0, frame_width = 16, frame_height = 24, origin_x = 8, origin_y = 21 },
    { x = 0, y = 0, frame_width = 16, frame_height = 24, origin_x = 8, origin_y = 21 },
    { x = 0, y = 0, frame_width = 16, frame_height = 24, origin_x = 8, origin_y = 21 },
  },
}
animation{
  name = "carrying_stopped",
  src_image = "hero/carrying.png",
  directions = {
    { x = 0, y = 0, frame_width = 24, frame_height = 24, origin_x = 12, origin_y = 21 },
    { x = 0, y = 24, frame_width = 24, frame_height = 24, origin_x = 12, origin_y = 21 },
    { x = 72, y = 0, frame_width = 24, frame_height = 24, origin_x = 12, origin_y = 21 },
    { x = 0, y = 48, frame_width = 24, frame_height = 24, origin_x = 12, origin_y = 21 },
  },
}
animation{
  name = "carrying_walking",
  src_image = "hero/carrying.png",
  frame_delay = 100,
  frame_to_loop_on = 0,
  directions = {
    { x = 0, y = 0, frame_width = 24, frame_height = 24, origin_x = 12, origin_y = 21, num_frames = 3 },
    { x = 0, y = 24, frame_width = 24, frame_height = 24, origin_x = 12, origin_y = 21, num_frames = 6 },
    { x = 72, y = 0, frame_width = 24, frame_height = 24, origin_x = 12, origin_y = 21, num_frames = 3 },
    { x = 0, y = 48, frame_width = 24, frame_height = 24, origin_x = 12, origin_y = 21, num_frames = 6 },
  },
}
animation{
  name = "dying",
  src_image = "hero/dying.png",
  frame_delay = 125,
  frame_to_loop_on = 9,
  directions = {
    { x = 0, y = 0, frame_width = 24, frame_height = 24, origin_x = 12, origin_y = 21, num_frames = 10 },
  },
}
animation{
  name = "falling",
  src_image = "hero/falling.png",
  frame_delay = 125,
  directions = {
    { x = 0, y = 0, frame_width = 24, frame_height = 24, origin_x = 12, origin_y = 12, num_frames = 6 },
    { x = 0, y = 0, frame_width = 24, frame_height = 24, origin_x = 12, origin_y = 12, num_frames = 6 },
    { x = 0, y = 0, frame_width = 24, frame_height = 24, origin_x = 12, origin_y = 12, num_frames = 6 },
    { x = 0, y = 0, frame_width = 24, frame_height = 24, origin_x = 12, origin_y = 12, num_frames = 6 },
  },
}
animation{
  name = "grabbing",
  src_image = "hero/grabbing.png",
  directions = {
    { x = 0, y = 0, frame_width = 24, frame_height = 24, origin_x = 12, origin_y = 21 },
    { x = 24, y = 0, frame_width = 24, frame_height = 24, origin_x = 12, origin_y = 21 },
    { x = 48, y = 0, frame_width = 24, frame_height = 24, origin_x = 12, origin_y = 21 },
    { x = 72, y = 0, frame_width = 24, frame_height = 24, origin_x = 12, origin_y = 21 },
  },
}
animation{
  name = "hammer",
  src_image = "hero/hammer.tunic.png",
  frame_delay = 50,
  directions = {
    { x = 0, y = 0, frame_width = 64, frame_height = 40, origin_x = 32, origin_y = 29, num_frames = 7 },
    { x = 0, y = 40, frame_width = 64, frame_height = 40, origin_x = 32, origin_y = 29, num_frames = 7 },
    { x = 0, y = 80, frame_width = 64, frame_height = 40, origin_x = 32, origin_y = 29, num_frames = 7 },
    { x = 0, y = 120, frame_width = 64, frame_height = 40, origin_x = 32, origin_y = 29, num_frames = 7 },
  },
}
animation{
  name = "hookshot",
  src_image = "hero/hookshot.tunic.png",
  directions = {
    { x = 0, y = 0, frame_width = 32, frame_height = 32, origin_x = 16, origin_y = 21 },
    { x = 0, y = 32, frame_width = 32, frame_height = 32, origin_x = 16, origin_y = 21 },
    { x = 0, y = 64, frame_width = 32, frame_height = 32, origin_x = 16, origin_y = 21 },
    { x = 0, y = 96, frame_width = 32, frame_height = 32, origin_x = 16, origin_y = 21 },
  },
}
animation{
  name = "hurt",
  src_image = "hero/hurt.png",
  directions = {
    { x = 0, y = 0, frame_width = 24, frame_height = 24, origin_x = 12, origin_y = 21 },
    { x = 24, y = 0, frame_width = 24, frame_height = 24, origin_x = 12, origin_y = 21 },
    { x = 48, y = 0, frame_width = 24, frame_height = 24, origin_x = 12, origin_y = 21 },
    { x = 72, y = 0, frame_width = 24, frame_height = 24, origin_x = 12, origin_y = 21 },
  },
}
animation{
  name = "jumping",
  src_image = "hero/jumping.png",
  directions = {
    { x = 0, y = 0, frame_width = 24, frame_height = 24, origin_x = 12, origin_y = 21 },
    { x = 24, y = 0, frame_width = 24, frame_height = 24, origin_x = 12, origin_y = 21 },
    { x = 48, y = 0, frame_width = 24, frame_height = 24, origin_x = 12, origin_y = 21 },
    { x = 72, y = 0, frame_width = 24, frame_height = 24, origin_x = 12, origin_y = 21 },
  },
}
animation{
  name = "lifting",
  src_image = "hero/lifting.png",
  frame_delay = 100,
  directions = {
    { x = 0, y = 0, frame_width = 48, frame_height = 24, origin_x = 24, origin_y = 21, num_frames = 5 },
    { x = 0, y = 24, frame_width = 48, frame_height = 24, origin_x = 24, origin_y = 21, num_frames = 5 },
    { x = 0, y = 48, frame_width = 48, frame_height = 24, origin_x = 24, origin_y = 21, num_frames = 5 },
    { x = 0, y = 72, frame_width = 48, frame_height = 24, origin_x = 24, origin_y = 21, num_frames = 5 },
  },
}
animation{
  name = "magic_powder",
  src_image = "hero/magic_powder.png",
  frame_delay = 50,
  frame_to_loop_on = 2,
  directions = {
    { x = 0, y = 0, frame_width = 64, frame_height = 40, origin_x = 32, origin_y = 29, num_frames = 3 },
    { x = 0, y = 40, frame_width = 64, frame_height = 40, origin_x = 32, origin_y = 29, num_frames = 3 },
    { x = 0, y = 80, frame_width = 64, frame_height = 40, origin_x = 32, origin_y = 29, num_frames = 3 },
    { x = 0, y = 120, frame_width = 64, frame_height = 40, origin_x = 32, origin_y = 29, num_frames = 3 },
  },
}
animation{
  name = "plunging_lava",
  src_image = "hero/plunging.png",
  frame_delay = 50,
  directions = {
    { x = 336, y = 0, frame_width = 56, frame_height = 24, origin_x = 28, origin_y = 21, num_frames = 6 },
    { x = 336, y = 24, frame_width = 56, frame_height = 24, origin_x = 28, origin_y = 21, num_frames = 6 },
    { x = 336, y = 48, frame_width = 56, frame_height = 24, origin_x = 28, origin_y = 21, num_frames = 6 },
    { x = 336, y = 72, frame_width = 56, frame_height = 24, origin_x = 28, origin_y = 21, num_frames = 6 },
  },
}
animation{
  name = "plunging_water",
  src_image = "hero/plunging.png",
  frame_delay = 50,
  directions = {
    { x = 0, y = 0, frame_width = 56, frame_height = 24, origin_x = 28, origin_y = 21, num_frames = 6 },
    { x = 0, y = 24, frame_width = 56, frame_height = 24, origin_x = 28, origin_y = 21, num_frames = 6 },
    { x = 0, y = 48, frame_width = 56, frame_height = 24, origin_x = 28, origin_y = 21, num_frames = 6 },
    { x = 0, y = 72, frame_width = 56, frame_height = 24, origin_x = 28, origin_y = 21, num_frames = 6 },
  },
}
animation{
  name = "pulling",
  src_image = "hero/pulling.png",
  frame_delay = 150,
  frame_to_loop_on = 0,
  directions = {
    { x = 0, y = 0, frame_width = 32, frame_height = 24, origin_x = 16, origin_y = 21, num_frames = 3 },
    { x = 0, y = 24, frame_width = 32, frame_height = 24, origin_x = 16, origin_y = 21, num_frames = 3 },
    { x = 0, y = 48, frame_width = 32, frame_height = 24, origin_x = 16, origin_y = 21, num_frames = 3 },
    { x = 0, y = 72, frame_width = 32, frame_height = 24, origin_x = 16, origin_y = 21, num_frames = 3 },
  },
}
animation{
  name = "pushing",
  src_image = "hero/pushing.png",
  frame_delay = 100,
  frame_to_loop_on = 0,
  directions = {
    { x = 0, y = 0, frame_width = 24, frame_height = 32, origin_x = 12, origin_y = 29, num_frames = 5 },
    { x = 0, y = 32, frame_width = 24, frame_height = 32, origin_x = 12, origin_y = 29, num_frames = 5 },
    { x = 0, y = 64, frame_width = 24, frame_height = 32, origin_x = 12, origin_y = 29, num_frames = 5 },
    { x = 0, y = 96, frame_width = 24, frame_height = 32, origin_x = 12, origin_y = 29, num_frames = 5 },
  },
}
animation{
  name = "rod",
  src_image = "hero/rod.tunic.png",
  frame_delay = 50,
  frame_to_loop_on = 2,
  directions = {
    { x = 0, y = 0, frame_width = 64, frame_height = 40, origin_x = 32, origin_y = 29, num_frames = 3 },
    { x = 0, y = 40, frame_width = 64, frame_height = 40, origin_x = 32, origin_y = 29, num_frames = 3 },
    { x = 0, y = 80, frame_width = 64, frame_height = 40, origin_x = 32, origin_y = 29, num_frames = 3 },
    { x = 0, y = 120, frame_width = 64, frame_height = 40, origin_x = 32, origin_y = 29, num_frames = 3 },
  },
}
animation{
  name = "spin_attack",
  src_image = "hero/spin_attack.tunic1.png",
  frame_delay = 30,
  directions = {
    { x = 0, y = 0, frame_width = 24, frame_height = 24, origin_x = 12, origin_y = 21, num_frames = 22 },
    { x = 0, y = 24, frame_width = 24, frame_height = 24, origin_x = 12, origin_y = 21, num_frames = 22 },
    { x = 0, y = 48, frame_width = 24, frame_height = 24, origin_x = 12, origin_y = 21, num_frames = 22 },
    { x = 0, y = 72, frame_width = 24, frame_height = 24, origin_x = 12, origin_y = 21, num_frames = 22 },
  },
}
animation{
  name = "stopped_with_shield",
  src_image = "hero/stopped.tunic.png",
  directions = {
    { x = 0, y = 0, frame_width = 24, frame_height = 24, origin_x = 12, origin_y = 21 },
    { x = 48, y = 0, frame_width = 24, frame_height = 24, origin_x = 12, origin_y = 21 },
    { x = 72, y = 0, frame_width = 24, frame_height = 24, origin_x = 12, origin_y = 21 },
    { x = 96, y = 0, frame_width = 24, frame_height = 24, origin_x = 12, origin_y = 21 },
  },
}
animation{
  name = "super_spin_attack",
  src_image = "hero/spin_attack.tunic1.png",
  frame_delay = 30,
  frame_to_loop_on = 5,
  directions = {
    { x = 0, y = 0, frame_width = 24, frame_height = 24, origin_x = 12, origin_y = 21, num_frames = 22 },
    { x = 0, y = 24, frame_width = 24, frame_height = 24, origin_x = 12, origin_y = 21, num_frames = 22 },
    { x = 0, y = 48, frame_width = 24, frame_height = 24, origin_x = 12, origin_y = 21, num_frames = 22 },
    { x = 0, y = 72, frame_width = 24, frame_height = 24, origin_x = 12, origin_y = 21, num_frames = 22 },
  },
}
animation{
  name = "swimming_fast",
  src_image = "hero/swimming.png",
  frame_delay = 200,
  directions = {
    { x = 240, y = 0, frame_width = 40, frame_height = 40, origin_x = 20, origin_y = 29, num_frames = 3 },
    { x = 240, y = 40, frame_width = 40, frame_height = 40, origin_x = 20, origin_y = 29, num_frames = 3 },
    { x = 240, y = 80, frame_width = 40, frame_height = 40, origin_x = 20, origin_y = 29, num_frames = 3 },
    { x = 240, y = 120, frame_width = 40, frame_height = 40, origin_x = 20, origin_y = 29, num_frames = 3 },
  },
}
animation{
  name = "swimming_slow",
  src_image = "hero/swimming.png",
  frame_delay = 200,
  frame_to_loop_on = 0,
  directions = {
    { x = 80, y = 0, frame_width = 40, frame_height = 40, origin_x = 20, origin_y = 29, num_frames = 4 },
    { x = 80, y = 40, frame_width = 40, frame_height = 40, origin_x = 20, origin_y = 29, num_frames = 4 },
    { x = 80, y = 80, frame_width = 40, frame_height = 40, origin_x = 20, origin_y = 29, num_frames = 4 },
    { x = 80, y = 120, frame_width = 40, frame_height = 40, origin_x = 20, origin_y = 29, num_frames = 4 },
  },
}
animation{
  name = "swimming_stopped",
  src_image = "hero/swimming.png",
  frame_delay = 300,
  frame_to_loop_on = 0,
  directions = {
    { x = 0, y = 0, frame_width = 40, frame_height = 40, origin_x = 20, origin_y = 29, num_frames = 2 },
    { x = 0, y = 40, frame_width = 40, frame_height = 40, origin_x = 20, origin_y = 29, num_frames = 2 },
    { x = 0, y = 80, frame_width = 40, frame_height = 40, origin_x = 20, origin_y = 29, num_frames = 2 },
    { x = 0, y = 120, frame_width = 40, frame_height = 40, origin_x = 20, origin_y = 29, num_frames = 2 },
  },
}
animation{
  name = "sword",
  src_image = "hero/sword.tunic1.png",
  frame_delay = 20,
  directions = {
    { x = 0, y = 0, frame_width = 32, frame_height = 32, origin_x = 16, origin_y = 29, num_frames = 12 },
    { x = 0, y = 32, frame_width = 32, frame_height = 32, origin_x = 16, origin_y = 29, num_frames = 12 },
    { x = 0, y = 64, frame_width = 32, frame_height = 32, origin_x = 16, origin_y = 29, num_frames = 12 },
    { x = 0, y = 96, frame_width = 32, frame_height = 32, origin_x = 16, origin_y = 29, num_frames = 12 },
  },
}
animation{
  name = "sword_loading_stopped",
  src_image = "hero/loading.tunic1.png",
  directions = {
    { x = 0, y = 0, frame_width = 24, frame_height = 24, origin_x = 12, origin_y = 21 },
    { x = 0, y = 24, frame_width = 24, frame_height = 24, origin_x = 12, origin_y = 21 },
    { x = 0, y = 48, frame_width = 24, frame_height = 24, origin_x = 12, origin_y = 21 },
    { x = 0, y = 72, frame_width = 24, frame_height = 24, origin_x = 12, origin_y = 21 },
  },
}
animation{
  name = "sword_loading_walking",
  src_image = "hero/loading.tunic1.png",
  frame_delay = 100,
  frame_to_loop_on = 0,
  directions = {
    { x = 0, y = 0, frame_width = 24, frame_height = 24, origin_x = 12, origin_y = 21, num_frames = 6 },
    { x = 0, y = 24, frame_width = 24, frame_height = 24, origin_x = 12, origin_y = 21, num_frames = 6 },
    { x = 0, y = 48, frame_width = 24, frame_height = 24, origin_x = 12, origin_y = 21, num_frames = 6 },
    { x = 0, y = 72, frame_width = 24, frame_height = 24, origin_x = 12, origin_y = 21, num_frames = 6 },
  },
}
animation{
  name = "sword_tapping",
  src_image = "hero/sword_tapping.tunic.png",
  frame_delay = 40,
  frame_to_loop_on = 1,
  directions = {
    { x = 0, y = 0, frame_width = 40, frame_height = 24, origin_x = 12, origin_y = 21, num_frames = 7 },
    { x = 0, y = 24, frame_width = 24, frame_height = 40, origin_x = 12, origin_y = 37, num_frames = 7 },
    { x = 0, y = 64, frame_width = 40, frame_height = 24, origin_x = 28, origin_y = 21, num_frames = 7 },
    { x = 0, y = 88, frame_width = 24, frame_height = 40, origin_x = 12, origin_y = 21, num_frames = 7 },
  },
}
animation{
  name = "victory",
  src_image = "hero/victory.tunic.png",
  frame_delay = 50,
  frame_to_loop_on = 17,
  directions = {
    { x = 0, y = 0, frame_width = 24, frame_height = 24, origin_x = 12, origin_y = 21, num_frames = 18 },
    { x = 0, y = 0, frame_width = 24, frame_height = 24, origin_x = 12, origin_y = 21, num_frames = 18 },
    { x = 0, y = 0, frame_width = 24, frame_height = 24, origin_x = 12, origin_y = 21, num_frames = 18 },
    { x = 0, y = 0, frame_width = 24, frame_height = 24, origin_x = 12, origin_y = 21, num_frames = 18 },
  },
}
animation{
  name = "walking",
  src_image = "hero/walking.tunic.png",
  frame_delay = 40,
  frame_to_loop_on = 0,
  directions = {
    { x = 0, y = 0, frame_width = 24, frame_height = 32, origin_x = 12, origin_y = 29, num_frames = 8 },
    { x = 0, y = 32, frame_width = 24, frame_height = 32, origin_x = 12, origin_y = 29, num_frames = 8 },
    { x = 0, y = 96, frame_width = 24, frame_height = 32, origin_x = 12, origin_y = 29, num_frames = 8 },
    { x = 0, y = 128, frame_width = 24, frame_height = 32, origin_x = 12, origin_y = 29, num_frames = 8 },
  },
}
animation{
  name = "walking_diagonal",
  src_image = "hero/walking.tunic.png",
  frame_delay = 40,
  frame_to_loop_on = 0,
  directions = {
    { x = 192, y = 0, frame_width = 24, frame_height = 32, origin_x = 12, origin_y = 29, num_frames = 3 },
    { x = 192, y = 32, frame_width = 24, frame_height = 32, origin_x = 12, origin_y = 29, num_frames = 3 },
    { x = 192, y = 96, frame_width = 24, frame_height = 32, origin_x = 12, origin_y = 29, num_frames = 3 },
    { x = 192, y = 128, frame_width = 24, frame_height = 32, origin_x = 12, origin_y = 29, num_frames = 3 },
  },
}
animation{
  name = "walking_with_shield",
  src_image = "hero/walking.tunic.png",
  frame_delay = 40,
  frame_to_loop_on = 0,
  directions = {
    { x = 0, y = 0, frame_width = 24, frame_height = 32, origin_x = 12, origin_y = 29, num_frames = 8 },
    { x = 0, y = 64, frame_width = 24, frame_height = 32, origin_x = 12, origin_y = 29, num_frames = 8 },
    { x = 0, y = 96, frame_width = 24, frame_height = 32, origin_x = 12, origin_y = 29, num_frames = 8 },
    { x = 0, y = 128, frame_width = 24, frame_height = 32, origin_x = 12, origin_y = 29, num_frames = 8 },
  },
}
